<?xml version="1.0" encoding="utf-8"?>
<!-- Generator: Adobe Illustrator 17.0.0, SVG Export Plug-In . SVG Version: 6.00 Build 0)  -->
<!DOCTYPE svg PUBLIC "-//W3C//DTD SVG 1.1//EN" "http://www.w3.org/Graphics/SVG/1.1/DTD/svg11.dtd">
<svg version="1.1" id="Слой_1" xmlns="http://www.w3.org/2000/svg" xmlns:xlink="http://www.w3.org/1999/xlink" x="0px" y="0px"
	 width="150px" height="150px" viewBox="0 0 150 150" enable-background="new 0 0 150 150" xml:space="preserve">
<g>
	<path fill="#050D0C" d="M139.499,123.113c0.852-1.798,1.552-3.629,2.109-5.476l4.008,0.87l1.248-5.663l-4.003-0.87
		c0.564-3.929,0.51-7.872-0.115-11.704l3.996-0.943l-1.352-5.64l-4.001,0.944c-1.192-3.725-2.946-7.266-5.207-10.497l3.19-2.572
		l-3.683-4.5l-3.187,2.57c-2.656-2.796-5.766-5.236-9.285-7.205l1.751-3.697l-5.284-2.468l-1.752,3.697
		c-3.766-1.435-7.634-2.257-11.49-2.507l-0.036-4.076l-5.841,0.05l0.036,4.079c-3.948,0.329-7.814,1.244-11.467,2.704l-1.816-3.662
		l-5.24,2.561l1.814,3.657c-3.373,1.965-6.47,4.435-9.161,7.369l-3.224-2.508l-3.6,4.564l3.227,2.51
		c-1.085,1.61-2.063,3.319-2.918,5.124c-0.85,1.795-1.548,3.622-2.104,5.466l-4.007-0.872l-1.249,5.664l4.001,0.87
		c-0.566,3.929-0.512,7.873,0.11,11.706l-3.993,0.941l1.35,5.642l3.999-0.943c1.192,3.725,2.946,7.266,5.206,10.498l-3.19,2.571
		l3.682,4.501l3.186-2.568c2.657,2.796,5.765,5.237,9.286,7.207l-1.753,3.696l5.285,2.468l1.752-3.696
		c3.773,1.439,7.648,2.261,11.51,2.512l0.037,4.076l5.841-0.053l-0.037-4.078c3.949-0.331,7.815-1.246,11.467-2.708l1.817,3.662
		l5.24-2.563l-1.815-3.655c3.371-1.966,6.467-4.438,9.156-7.373l3.227,2.508l3.599-4.565l-3.23-2.511
		C137.67,126.621,138.646,124.915,139.499,123.113z M108.171,97.367c5.064,2.365,7.237,8.357,4.856,13.384
		c-2.382,5.027-8.418,7.186-13.481,4.821c-5.064-2.365-7.238-8.356-4.856-13.384C97.071,97.161,103.107,95.002,108.171,97.367z
		 M73.529,111.9c-1.103-6.045-0.399-12.474,2.435-18.457c6.572-13.871,22.289-20.562,36.649-16.319l-5.704,12.04
		c-7.669-1.336-15.59,2.497-19.064,9.828c-1.285,2.712-1.809,5.586-1.661,8.383L73.529,111.9z M90.737,134.161
		c-6.378-2.979-11.243-7.851-14.247-13.622l12.539-4.483c1.734,2.649,4.207,4.867,7.297,6.311c3.061,1.429,6.325,1.912,9.458,1.568
		l4.519,12.457C103.935,137.748,97.086,137.125,90.737,134.161z M118.905,133.171l-4.554-12.551c2.299-1.677,4.221-3.931,5.52-6.673
		c3.493-7.371,1.375-15.93-4.629-20.931l5.696-12.023c12.527,8.255,17.404,24.592,10.814,38.502
		C128.903,125.507,124.334,130.162,118.905,133.171z"/>
	<path fill="#050D0C" d="M65.59,67.234c-0.341-1.479-0.789-2.907-1.331-4.278l2.821-1.352l-1.938-3.987l-2.819,1.35
		c-1.526-2.626-3.431-4.97-5.624-6.981l1.953-2.436l-3.489-2.757l-1.956,2.439c-2.485-1.681-5.22-2.989-8.112-3.873l0.696-3.038
		l-4.35-0.983l-0.695,3.036c-2.924-0.438-5.95-0.45-9,0.014l-0.702-3.042l-4.348,0.989l0.702,3.041
		c-2.944,0.9-5.66,2.215-8.095,3.869l-1.956-2.433l-3.488,2.762l1.958,2.436c-2.217,2.045-4.105,4.403-5.608,6.989l-2.828-1.35
		l-1.934,3.99l2.826,1.349c-1.095,2.759-1.783,5.692-2.008,8.715l-3.128,0.001l0.003,4.428l3.131-0.002
		c0.112,1.475,0.335,2.959,0.678,4.445c0.341,1.477,0.789,2.901,1.331,4.269l-2.823,1.35l1.938,3.989l2.818-1.349
		c1.525,2.626,3.429,4.971,5.622,6.983l-1.953,2.435l3.489,2.759l1.955-2.438c2.484,1.682,5.219,2.988,8.112,3.874l-0.697,3.037
		l4.348,0.983l0.697-3.034c2.923,0.437,5.95,0.452,9.001-0.013l0.702,3.042l4.347-0.99l-0.701-3.041
		c2.95-0.899,5.669-2.218,8.109-3.874l1.957,2.432l3.485-2.765l-1.959-2.434c2.217-2.045,4.106-4.404,5.607-6.991l2.83,1.35
		l1.932-3.992l-2.825-1.348c1.093-2.759,1.78-5.693,2.003-8.714l3.129-0.002l-0.003-4.429l-3.133,0.002
		C66.156,70.198,65.933,68.718,65.59,67.234z M34.541,66.418c4.166-0.948,8.317,1.637,9.271,5.772
		c0.955,4.136-1.648,8.257-5.814,9.205c-4.166,0.948-8.317-1.637-9.271-5.772C27.772,71.487,30.375,67.365,34.541,66.418z
		 M20.619,91.36c-3.531-3.117-6.162-7.312-7.297-12.232c-2.634-11.412,3.636-22.786,14.28-26.954l2.287,9.905
		c-5.243,2.784-8.185,8.794-6.793,14.825c0.515,2.231,1.565,4.203,2.982,5.815L20.619,91.36z M41.529,96.687
		c-5.247,1.195-10.484,0.542-15.029-1.521l5.407-8.56c2.3,0.78,4.839,0.958,7.381,0.38c2.518-0.573,4.709-1.811,6.429-3.482
		l8.629,5.372C51.162,92.669,46.751,95.499,41.529,96.687z M57.987,82.914l-8.695-5.412c0.586-2.084,0.671-4.337,0.151-6.593
		c-1.401-6.065-6.736-10.217-12.718-10.414l-2.283-9.891c11.448-0.898,22.134,6.638,24.775,18.081
		C60.358,73.63,59.821,78.567,57.987,82.914z"/>
	<path fill="#050D0C" d="M49.638,28.032c0,1.17,0.089,2.322,0.258,3.446l-2.357,0.535l0.766,3.331l2.355-0.533
		c0.692,2.236,1.718,4.326,3.019,6.215l-1.893,1.499l2.146,2.671l1.896-1.5c1.577,1.691,3.408,3.142,5.431,4.302l-1.052,2.167
		l3.102,1.483l1.05-2.164c2.124,0.83,4.399,1.356,6.774,1.53v2.408h3.443v-2.408c2.372-0.172,4.642-0.697,6.762-1.525l1.049,2.165
		l3.103-1.481l-1.049-2.167c2.023-1.159,3.854-2.61,5.433-4.299l1.894,1.5l2.147-2.671l-1.891-1.499
		c1.303-1.889,2.33-3.977,3.025-6.212l2.352,0.535l0.767-3.332l-2.356-0.536c0.172-1.128,0.262-2.284,0.262-3.459
		c0-1.17-0.089-2.318-0.258-3.44l2.357-0.534l-0.766-3.333l-2.354,0.533c-0.69-2.236-1.716-4.327-3.017-6.216l1.892-1.497
		l-2.146-2.673l-1.894,1.499c-1.577-1.69-3.408-3.142-5.43-4.303l1.052-2.166l-3.102-1.484l-1.049,2.164
		c-2.124-0.83-4.399-1.358-6.775-1.532V2.642h-3.441L71.14,5.05c-2.376,0.172-4.65,0.699-6.775,1.527l-1.049-2.164l-3.102,1.482
		l1.051,2.166c-2.023,1.159-3.855,2.611-5.433,4.3l-1.894-1.5l-2.147,2.672l1.891,1.498c-1.302,1.889-2.328,3.979-3.021,6.214
		l-2.355-0.534l-0.767,3.332l2.358,0.535C49.728,25.704,49.638,26.857,49.638,28.032z M72.856,33.961
		c-3.299,0-5.972-2.655-5.972-5.929s2.673-5.93,5.972-5.93c3.299,0,5.972,2.656,5.972,5.93S76.155,33.961,72.856,33.961z
		 M87.661,17.579c2.116,2.95,3.366,6.556,3.366,10.452c0,9.035-6.692,16.519-15.425,17.833v-7.843
		c4.429-1.197,7.686-5.215,7.686-9.991c0-1.767-0.448-3.43-1.234-4.886L87.661,17.579z M72.856,9.992
		c4.154,0,7.981,1.387,11.043,3.717l-5.556,5.514c-1.595-0.981-3.475-1.549-5.487-1.549c-1.994,0-3.857,0.557-5.441,1.519
		l-5.559-5.518C64.909,11.366,68.72,9.992,72.856,9.992z M58.081,17.536l5.601,5.56c-0.802,1.467-1.259,3.148-1.259,4.935
		c0,4.802,3.293,8.839,7.76,10.011v7.832c-8.769-1.284-15.499-8.783-15.499-17.844C54.685,24.114,55.946,20.493,58.081,17.536z"/>
</g>
</svg>
